{
  "repository": {
    "description": "GitLab is an open source end-to-end software development platform with built-in version control, issue tracking, code review, CI/CD, and more. Self-host GitLab on your own servers, in a container, or on a cloud provider.",
    "homepage": "https://gitlab.com/gitlab-org/gitlab",
    "url": "git@gitlab.com:gitlab-org/gitlab.git",
    "name": "GitLab"
  },
  "project": {
    "homepage": "https://gitlab.com/gitlab-org/gitlab",
    "name": "GitLab",
    "ci_config_path": "",
    "git_ssh_url": "git@gitlab.com:gitlab-org/gitlab.git",
    "namespace": "GitLab.org",
    "web_url": "https://gitlab.com/gitlab-org/gitlab",
    "id": 278964,
    "visibility_level": 20,
    "http_url": "https://gitlab.com/gitlab-org/gitlab.git",
    "ssh_url": "git@gitlab.com:gitlab-org/gitlab.git",
    "path_with_namespace": "gitlab-org/gitlab",
    "default_branch": "master",
    "url": "git@gitlab.com:gitlab-org/gitlab.git",
    "avatar_url": "https://gitlab.com/uploads/-/system/project/avatar/278964/logo-extra-whitespace.png",
    "description": "GitLab is an open source end-to-end software development platform with built-in version control, issue tracking, code review, CI/CD, and more. Self-host GitLab on your own servers, in a container, or on a cloud provider.",
    "git_http_url": "https://gitlab.com/gitlab-org/gitlab.git"
  },
  "labels": [
    {
      "updated_at": "2022-01-20 22:19:23 UTC",
      "project_id": null,
      "type": "GroupLabel",
      "color": "#00b140",
      "group_id": 9970,
      "description": "Actionable Insight:Product change - This is an actionable research insight derived from a UX research study. To address this insight, a change to the product experience is required.",
      "id": 23458265,
      "template": false,
      "title": "Actionable Insight::Product change",
      "created_at": "2022-01-20 21:06:58 UTC"
    },
    {
      "description": "Category vision in Create stage: https://gitlab.com/groups/gitlab-org/-/epics/687",
      "title": "Category:Source Code Management",
      "id": 11469047,
      "group_id": 9970,
      "color": "#428BCA",
      "type": "GroupLabel",
      "created_at": "2019-07-25 19:15:39 UTC",
      "template": false,
      "updated_at": "2019-08-27 17:08:57 UTC",
      "project_id": null
    },
    {
      "group_id": 9970,
      "template": false,
      "description": "Features or changes intended as part of GitLab Free and available to all tiers. For GitLab SaaS, corresponds to Free plans and higher.",
      "type": "GroupLabel",
      "title": "GitLab Free",
      "color": "#8E44AD",
      "created_at": "2021-05-10 05:19:44 UTC",
      "updated_at": "2021-05-10 05:19:44 UTC",
      "id": 19953071,
      "project_id": null
    },
    {
      "title": "UX",
      "group_id": 9970,
      "type": "GroupLabel",
      "created_at": "2017-05-17 17:55:03 UTC",
      "updated_at": "2019-02-18 15:43:33 UTC",
      "description": "Issues for the UX team. Covers new or existing functionality that needs a design proposal",
      "id": 2024184,
      "template": false,
      "color": "#D10069",
      "project_id": null
    },
    {
      "title": "documentation",
      "type": "GroupLabel",
      "id": 2278655,
      "project_id": null,
      "group_id": 9970,
      "description": "Epics, issues, and merge requests related to product documentation.",
      "color": "#D10069",
      "created_at": "2017-07-07 20:21:23 UTC",
      "template": false,
      "updated_at": "2019-09-22 23:22:34 UTC"
    },
    {
      "updated_at": "2017-11-27 19:59:05 UTC",
      "group_id": 9970,
      "project_id": null,
      "color": "#428bca",
      "description": "Issues related to Git, from commits, branches, and tags to files, diffs, and the blame view",
      "template": false,
      "id": 3081817,
      "type": "GroupLabel",
      "created_at": "2017-11-27 19:59:05 UTC",
      "title": "repository"
    },
    {
      "group_id": 9970,
      "project_id": null,
      "color": "#F0AD4E",
      "created_at": "2017-11-07 21:18:44 UTC",
      "type": "GroupLabel",
      "updated_at": "2021-07-14 18:22:59 UTC",
      "description": "User-facing improvements that refine the initial MVC to make it more useful and usable. Read more at https://about.gitlab.com/handbook/engineering/metrics/#data-classification",
      "id": 2975007,
      "template": false,
      "title": "feature::enhancement"
    },
    {
      "title": "group::source code",
      "created_at": "2019-04-17 13:57:02 UTC",
      "template": false,
      "project_id": null,
      "color": "#A8D695",
      "updated_at": "2019-05-23 09:26:35 UTC",
      "id": 10309854,
      "group_id": 9970,
      "type": "GroupLabel",
      "description": "Issues belonging to the Source Code group of the Create stage of the DevOps lifecycle. See https://about.gitlab.com/handbook/product/categories/#source-code-group"
    },
    {
      "created_at": "2020-05-11 22:11:57 UTC",
      "template": false,
      "id": 14918378,
      "color": "#F0AD4E",
      "description": "Issues related to the Dev section",
      "project_id": null,
      "group_id": 9970,
      "type": "GroupLabel",
      "updated_at": "2020-05-11 22:11:57 UTC",
      "title": "section::dev"
    },
    {
      "description": "Any issue/MR that contains work to support the implementation of a feature and/or results in an improvement in the user experience. Read more at https://about.gitlab.com/handbook/engineering/metrics/#work-type-classification",
      "group_id": 9970,
      "color": "#F0AD4E",
      "updated_at": "2021-10-27 09:36:25 UTC",
      "template": false,
      "created_at": "2019-04-09 12:29:58 UTC",
      "type": "GroupLabel",
      "id": 10230929,
      "title": "type::feature",
      "project_id": null
    }
  ],
  "event_type": "issue",
  "user": {
    "username": "pedroms",
    "name": "Pedro Moreira da Silva",
    "id": 626804,
    "avatar_url": "https://secure.gravatar.com/avatar/c306f087d191ac15549f3c11e3bed321?s=80&d=identicon",
    "email": "[REDACTED]"
  },
  "changes": {
    "updated_at": {
      "current": "2022-01-31 14:20:41 UTC",
      "previous": null
    },
    "iid": {
      "previous": null,
      "current": 351582
    },
    "description": {
      "current": "<!-- This issue template can be used as a great starting point for feature requests. The section \"Release notes\" can be used as a summary of the feature and is also required if you want to have your release post blog MR auto generated using the release post item generator:  https://about.gitlab.com/handbook/marketing/blog/release-posts/#release-post-item-generator. The remaining sections are the backbone for every feature in GitLab.\n\nThe goal of this template is brevity for quick/smaller iterations. For a more thorough list of considerations for larger features or feature sets, you can leverage the detailed [feature proposal](https://gitlab.com/gitlab-org/gitlab/-/blob/master/.gitlab/issue_templates/Feature%20proposal%20-%20detailed.md). -->\n\n### Release notes\n\n<!-- What is the problem and solution you're proposing? This content sets the overall vision for the feature and serves as the release notes that will populate in various places, including the [release post blog](https://about.gitlab.com/releases/categories/releases/) and [Gitlab project releases](https://gitlab.com/gitlab-org/gitlab/-/releases). \" -->\n\n### Problem to solve\n\nThis issue is applying what was implemented in https://gitlab.com/gitlab-org/gitlab/-/issues/327052+ to the file/blob view. We believe that the [research insight](https://dovetailapp.com/projects/e7ae7dac-69e6-44c5-8927-fbf14cd5f8a8/insights/present/26893793-998b-48b5-8924-f57c1a809176) that resulted in that other issue is also applicable to the file/blob view, and not just the code search results.\n\nFrom https://gitlab.com/gitlab-org/gitlab/-/issues/327052:\n\n> Users mentioned that some of the most important information when looking through results of a code search are when it was last updated and who modified it. Often times they are looking for the commit where this portion of the code was changed.\n\n### Proposal\n\nAdapted from https://gitlab.com/gitlab-org/gitlab/-/issues/327052:\n\nSince the Git Blame offers much of this information that a user would be looking for related to a specific section of code they are looking at, we should make it easier to get to that information. For the first iteration of this, we will include a link from the file line that takes the user directly to the Blame page (anchored to the specific line).\n\n![image](https://gitlab.com/gitlab-org/gitlab/uploads/3b9e90c88ae8d47497f358f9345a4cf9/image.png)\n\n![image](https://gitlab.com/gitlab-org/gitlab/uploads/d4b8eea861e9bf99aac940c66fdae87b/image.png)\n\n### Intended users\n\n[Sasha (Software Developer)](https://about.gitlab.com/handbook/marketing/product-marketing/roles-personas/#sasha-software-developer)\n\n### Metrics\n\n<!-- How are you going to track usage of this feature? Think about user behavior and their interaction with the product. What indicates someone is getting value from it?\n\nCreate tracking issue using the Snowplow event tracking template. See https://gitlab.com/gitlab-org/gitlab/-/blob/master/.gitlab/issue_templates/Snowplow%20event%20tracking.md\n\n-->\n\n- Track visits from a file view to its blame view, with the line anchor\n- Compare the visits described above with regular/non-line visits from a file view to its blame view.",
      "previous": null
    },
    "created_at": {
      "current": "2022-01-31 14:20:41 UTC",
      "previous": null
    },
    "id": {
      "previous": null,
      "current": 101596701
    },
    "author_id": {
      "previous": null,
      "current": 626804
    },
    "title": {
      "previous": null,
      "current": "Go to Git blame for specific line of file"
    },
    "project_id": {
      "previous": null,
      "current": 278964
    }
  },
  "object_kind": "issue",
  "object_attributes": {
    "state_id": 1,
    "human_time_change": null,
    "last_edited_by_id": null,
    "url": "https://gitlab.com/gitlab-org/gitlab/-/issues/351582",
    "iid": 351582,
    "last_edited_at": null,
    "total_time_spent": 0,
    "id": 101596701,
    "relative_position": null,
    "labels": [
      {
        "group_id": 9970,
        "description": "Actionable Insight:Product change - This is an actionable research insight derived from a UX research study. To address this insight, a change to the product experience is required.",
        "project_id": null,
        "id": 23458265,
        "created_at": "2022-01-20 21:06:58 UTC",
        "template": false,
        "color": "#00b140",
        "updated_at": "2022-01-20 22:19:23 UTC",
        "type": "GroupLabel",
        "title": "Actionable Insight::Product change"
      },
      {
        "color": "#428BCA",
        "updated_at": "2019-08-27 17:08:57 UTC",
        "description": "Category vision in Create stage: https://gitlab.com/groups/gitlab-org/-/epics/687",
        "title": "Category:Source Code Management",
        "template": false,
        "project_id": null,
        "created_at": "2019-07-25 19:15:39 UTC",
        "id": 11469047,
        "type": "GroupLabel",
        "group_id": 9970
      },
      {
        "updated_at": "2021-05-10 05:19:44 UTC",
        "type": "GroupLabel",
        "created_at": "2021-05-10 05:19:44 UTC",
        "id": 19953071,
        "template": false,
        "color": "#8E44AD",
        "description": "Features or changes intended as part of GitLab Free and available to all tiers. For GitLab SaaS, corresponds to Free plans and higher.",
        "project_id": null,
        "group_id": 9970,
        "title": "GitLab Free"
      },
      {
        "title": "UX",
        "color": "#D10069",
        "id": 2024184,
        "project_id": null,
        "updated_at": "2019-02-18 15:43:33 UTC",
        "description": "Issues for the UX team. Covers new or existing functionality that needs a design proposal",
        "group_id": 9970,
        "type": "GroupLabel",
        "created_at": "2017-05-17 17:55:03 UTC",
        "template": false
      },
      {
        "group_id": 9970,
        "type": "GroupLabel",
        "title": "documentation",
        "project_id": null,
        "updated_at": "2019-09-22 23:22:34 UTC",
        "color": "#D10069",
        "template": false,
        "created_at": "2017-07-07 20:21:23 UTC",
        "description": "Epics, issues, and merge requests related to product documentation.",
        "id": 2278655
      },
      {
        "type": "GroupLabel",
        "group_id": 9970,
        "color": "#428bca",
        "updated_at": "2017-11-27 19:59:05 UTC",
        "title": "repository",
        "id": 3081817,
        "description": "Issues related to Git, from commits, branches, and tags to files, diffs, and the blame view",
        "created_at": "2017-11-27 19:59:05 UTC",
        "template": false,
        "project_id": null
      },
      {
        "title": "feature::enhancement",
        "color": "#F0AD4E",
        "project_id": null,
        "group_id": 9970,
        "template": false,
        "created_at": "2017-11-07 21:18:44 UTC",
        "updated_at": "2021-07-14 18:22:59 UTC",
        "id": 2975007,
        "type": "GroupLabel",
        "description": "User-facing improvements that refine the initial MVC to make it more useful and usable. Read more at https://about.gitlab.com/handbook/engineering/metrics/#data-classification"
      },
      {
        "created_at": "2019-04-17 13:57:02 UTC",
        "template": false,
        "color": "#A8D695",
        "group_id": 9970,
        "title": "group::source code",
        "updated_at": "2019-05-23 09:26:35 UTC",
        "type": "GroupLabel",
        "description": "Issues belonging to the Source Code group of the Create stage of the DevOps lifecycle. See https://about.gitlab.com/handbook/product/categories/#source-code-group",
        "project_id": null,
        "id": 10309854
      },
      {
        "id": 14918378,
        "color": "#F0AD4E",
        "group_id": 9970,
        "description": "Issues related to the Dev section",
        "template": false,
        "type": "GroupLabel",
        "title": "section::dev",
        "project_id": null,
        "updated_at": "2020-05-11 22:11:57 UTC",
        "created_at": "2020-05-11 22:11:57 UTC"
      },
      {
        "group_id": 9970,
        "id": 10230929,
        "template": false,
        "created_at": "2019-04-09 12:29:58 UTC",
        "project_id": null,
        "color": "#F0AD4E",
        "description": "Any issue/MR that contains work to support the implementation of a feature and/or results in an improvement in the user experience. Read more at https://about.gitlab.com/handbook/engineering/metrics/#work-type-classification",
        "title": "type::feature",
        "type": "GroupLabel",
        "updated_at": "2021-10-27 09:36:25 UTC"
      }
    ],
    "author_id": 626804,
    "assignee_ids": [],
    "duplicated_to_id": null,
    "closed_at": null,
    "moved_to_id": null,
    "action": "open",
    "assignee_id": null,
    "severity": "unknown",
    "project_id": 278964,
    "title": "Go to Git blame for specific line of file",
    "confidential": false,
    "discussion_locked": null,
    "time_estimate": 0,
    "human_total_time_spent": null,
    "human_time_estimate": null,
    "time_change": 0,
    "weight": null,
    "due_date": null,
    "state": "opened",
    "milestone_id": null,
    "updated_at": "2022-01-31 14:20:41 UTC",
    "description": "<!-- This issue template can be used as a great starting point for feature requests. The section \"Release notes\" can be used as a summary of the feature and is also required if you want to have your release post blog MR auto generated using the release post item generator:  https://about.gitlab.com/handbook/marketing/blog/release-posts/#release-post-item-generator. The remaining sections are the backbone for every feature in GitLab.\n\nThe goal of this template is brevity for quick/smaller iterations. For a more thorough list of considerations for larger features or feature sets, you can leverage the detailed [feature proposal](https://gitlab.com/gitlab-org/gitlab/-/blob/master/.gitlab/issue_templates/Feature%20proposal%20-%20detailed.md). -->\n\n### Release notes\n\n<!-- What is the problem and solution you're proposing? This content sets the overall vision for the feature and serves as the release notes that will populate in various places, including the [release post blog](https://about.gitlab.com/releases/categories/releases/) and [Gitlab project releases](https://gitlab.com/gitlab-org/gitlab/-/releases). \" -->\n\n### Problem to solve\n\nThis issue is applying what was implemented in https://gitlab.com/gitlab-org/gitlab/-/issues/327052+ to the file/blob view. We believe that the [research insight](https://dovetailapp.com/projects/e7ae7dac-69e6-44c5-8927-fbf14cd5f8a8/insights/present/26893793-998b-48b5-8924-f57c1a809176) that resulted in that other issue is also applicable to the file/blob view, and not just the code search results.\n\nFrom https://gitlab.com/gitlab-org/gitlab/-/issues/327052:\n\n> Users mentioned that some of the most important information when looking through results of a code search are when it was last updated and who modified it. Often times they are looking for the commit where this portion of the code was changed.\n\n### Proposal\n\nAdapted from https://gitlab.com/gitlab-org/gitlab/-/issues/327052:\n\nSince the Git Blame offers much of this information that a user would be looking for related to a specific section of code they are looking at, we should make it easier to get to that information. For the first iteration of this, we will include a link from the file line that takes the user directly to the Blame page (anchored to the specific line).\n\n![image](https://gitlab.com/gitlab-org/gitlab/uploads/3b9e90c88ae8d47497f358f9345a4cf9/image.png)\n\n![image](https://gitlab.com/gitlab-org/gitlab/uploads/d4b8eea861e9bf99aac940c66fdae87b/image.png)\n\n### Intended users\n\n[Sasha (Software Developer)](https://about.gitlab.com/handbook/marketing/product-marketing/roles-personas/#sasha-software-developer)\n\n### Metrics\n\n<!-- How are you going to track usage of this feature? Think about user behavior and their interaction with the product. What indicates someone is getting value from it?\n\nCreate tracking issue using the Snowplow event tracking template. See https://gitlab.com/gitlab-org/gitlab/-/blob/master/.gitlab/issue_templates/Snowplow%20event%20tracking.md\n\n-->\n\n- Track visits from a file view to its blame view, with the line anchor\n- Compare the visits described above with regular/non-line visits from a file view to its blame view.",
    "updated_by_id": null,
    "created_at": "2022-01-31 14:20:41 UTC"
  }
}
